[
  {
    "productId": "15117729",
    "price": 25.99,
    "currencyCode": "USD"
  },
  {
    "productId": "16483589",
    "price": 35.99,
    "currencyCode": "USD"
  },
  {
    "productId": "16696652",
    "price": 45.19,
    "currencyCode": "USD"
  },
  {
    "productId": "16752456",
    "price": 55.59,
    "currencyCode": "USD"
  },
  {
    "productId": "15643793",
    "price": 15.69,
    "currencyCode": "USD"
  }
]
